[
    {
        "nombre": "ConcretoAirado",
        "alias": "CONCRETO AIRADO",
        "mYoung": 1.5,
        "densidad": 300,
        "coefInterno": 0,
        "factorN": 0.05,
        "cPoison": 0.2,
        "Absorvente": false
      
    },
    {
        "material": "ConcretoAltaResistencia",
        "alias": "CONCRETO ALTA RESISTENCIA",
        "mYoung": 30,
        "densidad": 2400,
        "coefInterno": 0,
        "factorN": 0.05,
        "cPoison": 0.2,
        "Absorvente": false
    },
    {
        "material": "ConcretoNormal",
        "alias": "CONCRETO NORMAL",
        "mYoung": 18,
        "densidad": 2300,
        "coefInterno": 0,
        "factorN": 0.05,
        "cPoison": 0.2,
        "Absorvente": false
    },
    {
        "material": "Ladrillo",
        "alias": "LADRILLO",
        "mYoung": 24,
        "densidad": 2000,
        "coefInterno": 0,
        "factorN": 0.05,
        "cPoison": 0.12,
        "Absorvente": false
    },
    {
        "material": "LadrilloDeCarbono",
        "alias": "LADRILLO DE CARBONO ",
        "mYoung": 8.2,
        "densidad": 1630,
        "coefInterno": 0,
        "factorN": 0.01,
        "cPoison": 0.07,
        "Absorvente": false
    },
    {
        "material": "Vidrio",
        "alias": "VIDRIO",
        "mYoung": 68,
        "densidad": 2500,
        "coefInterno": 0,
        "factorN": 0.02,
        "cPoison": 0.23,
        "Absorvente": false
    },
    {
        "material": "VidrioMarcaPyrex",
        "alias": "VIDRIO MARCA PYREX",
        "mYoung": 62,
        "densidad": 2320,
        "coefInterno": 0,
        "factorN": 0.02,
        "cPoison": 0.23,
        "Absorvente": false
    },
    {
        "material": "AbedulAmarillo",
        "alias": "ABEDUL AMARILLO",
        "mYoung": 13.9,
        "densidad": 620,
        "coefInterno": 0,
        "factorN": 0.05,
        "cPoison": 0.43,
        "Absorvente": false
    },
    {
        "material": "AbetoDeDouglasAfricano",
        "alias": "ABETO DE DOUGLAS AFRICANO",
        "mYoung": 9.7,
        "densidad": 620,
        "coefInterno": 0,
        "factorN": 0.05,
        "cPoison": 0.43,
        "Absorvente": false
    },
    {
        "material": "AbetoDeDouglaCostero",
        "alias": "ABETO DE DOUGLAS COSTERO",
        "mYoung": 10.8,
        "densidad": 450,
        "coefInterno": 0,
        "factorN": 0.05,
        "cPoison": 0.29,
        "Absorvente": false
    },
    {
        "material": "AbetoDeDouglaHonduras",
        "alias": "ABETO DE DOUGLAS HONDURAS",
        "mYoung": 10.3,
        "densidad": 450,
        "coefInterno": 0,
        "factorN": 0.05,
        "cPoison": 0.31,
        "Absorvente": false
    },
    {
        "material": "AbetoDeDouglaInterior",
        "alias": "ABETO DE DOUGLAS INTERIOR",
        "mYoung": 8,
        "densidad": 430,
        "coefInterno": 0,
        "factorN": 0.05,
        "cPoison": 0.29,
        "Absorvente": false
    },
    {
        "material": "AbetoDeDouglaPinoOregon",
        "alias": "ABETO DE DOUGLAS PINO OREGON",
        "mYoung": 9.7,
        "densidad": 500,
        "coefInterno": 0,
        "factorN": 0.05,
        "cPoison": 0.29,
        "Absorvente": false
    },
    {
        "material": "AceroCarbon",
        "alias": "ACERO CARBON",
        "mYoung": 210,
        "densidad": 7840,
        "coefInterno": 0,
        "factorN": 0.02,
        "cPoison": 0.29,
        "Absorvente": false
    },
    {
        "material": "AceroSuave",
        "alias": "ACERO SUAVE",
        "mYoung": 207,
        "densidad": 7850,
        "coefInterno": 0,
        "factorN": 0.01,
        "cPoison": 0.3,
        "Absorvente": false
    },
    {
        "material": "AceroInoxidable302",
        "alias": "ACERO INOXIDABLE 302",
        "mYoung": 200,
        "densidad": 7910,
        "coefInterno": 0,
        "factorN": 0.01,
        "cPoison": 0.3,
        "Absorvente": false
    },
    {
        "material": "AceroInoxidable316",
        "alias": "ACERO INOXIDABLE 316",
        "mYoung": 200,
        "densidad": 7950,
        "coefInterno": 0,
        "factorN": 0.01,
        "cPoison": 0.3,
        "Absorvente": false
    },
    {
        "material": "AceroInoxidable347",
        "alias": "ACERO INOXIDABLE 347",
        "mYoung": 198,
        "densidad": 7900,
        "coefInterno": 0,
        "factorN": 0.02,
        "cPoison": 0.3,
        "Absorvente": false
    },
    {
        "material": "AceroInoxidable430",
        "alias": "ACERO INOXIDABLE 430",
        "mYoung": 230,
        "densidad": 7710,
        "coefInterno": 0,
        "factorN": 0.03,
        "cPoison": 0.3,
        "Absorvente": false
    },
    {
        "material": "Alamo",
        "alias": "ALAMO",
        "mYoung": 10,
        "densidad": 350,
        "coefInterno": 0,
        "factorN": 0.05,
        "cPoison": 0,
        "Absorvente": false
    },
    {
        "material": "AlamoTemblon",
        "alias": "ALAMO TEMBLON",
        "mYoung": 8.1,
        "densidad": 380,
        "coefInterno": 0,
        "factorN": 0.05,
        "cPoison": 0.49,
        "Absorvente": false
    },
    {
        "material": "AleacionNiquelHierro",
        "alias": "ALEACION NIQUEL HIERRO",
        "mYoung": 143,
        "densidad": 8000,
        "coefInterno": 0,
        "factorN": 0.01,
        "cPoison": 0.33,
        "Absorvente": false
    },
    {
        "material": "Arce",
        "alias": "ARCE",
        "mYoung": 12,
        "densidad": 600,
        "coefInterno": 0,
        "factorN": 0.05,
        "cPoison": 0.43,
        "Absorvente": false
    },
    {
        "material": "BloqueDeMamposteria",
        "alias": "BLOQUE DE MAMPOSTERIA",
        "mYoung": 4.8,
        "densidad": 900,
        "coefInterno": 0,
        "factorN": 0.05,
        "cPoison": 0.12,
        "Absorvente": false
    },
    {
        "material": "CarburoDeTungsteno",
        "alias": "CARBURO DE TUNGSTENO ",
        "mYoung": 534,
        "densidad": 13800,
        "coefInterno": 0,
        "factorN": 0.05,
        "cPoison": 0.22,
        "Absorvente": false
    },
    {
        "material": "CauchoNeopreno",
        "alias": "CAUCHO NEOPRENO",
        "mYoung": 0.01,
        "densidad": 1100,
        "coefInterno": 0,
        "factorN": 0.1,
        "cPoison": 0.49,
        "Absorvente": false
    },
    {
        "material": "CenizaBlanca",
        "alias": "CENIZA BLANCA",
        "mYoung": 12,
        "densidad": 600,
        "coefInterno": 0,
        "factorN": 0.05,
        "cPoison": 0,
        "Absorvente": false
    },
    {
        "material": "CenizaNegra",
        "alias": "CENIZA NEGRA",
        "mYoung": 11,
        "densidad": 4500,
        "coefInterno": 0,
        "factorN": 0.05,
        "cPoison": 0.37,
        "Absorvente": false
    },
    {
        "material": "CobreLaminado",
        "alias": "COBRE LAMINADO",
        "mYoung": 126,
        "densidad": 8930,
        "coefInterno": 0,
        "factorN": 0.01,
        "cPoison": 0.34,
        "Absorvente": false
    },
    {
        "material": "CobreRecocido",
        "alias": "COBRE RECOCIDO",
        "mYoung": 128,
        "densidad": 8900,
        "coefInterno": 0,
        "factorN": 0.01,
        "cPoison": 0.34,
        "Absorvente": false
    },
    {
        "material": "Corcho",
        "alias": "CORCHO",
        "mYoung": 0.1,
        "densidad": 250,
        "coefInterno": 0,
        "factorN": 0.05,
        "cPoison": 0.15, 
        "Absorvente": false
    },
    {
        "material": "Cromo",
        "alias": "CROMO",
        "mYoung": 279,
        "densidad": 7200,
        "coefInterno": 0,
        "factorN": 0.01,
        "cPoison": 0.21,
        "Absorvente": false
    },
    {
        "material": "Estaño",
        "alias": "ESTAÑO",
        "mYoung": 54,
        "densidad": 7300,
        "coefInterno": 0,
        "factorN": 0.01,
        "cPoison": 0.33,
        "Absorvente": false
    },
    {
        "material": "Hierro",
        "alias": "HIERRO",
        "mYoung": 200,
        "densidad": 7600,
        "coefInterno": 0,
        "factorN": 0.01,
        "cPoison": 0.3,
        "Absorvente": false
    },
    {
        "material": "HierroBlanco",
        "alias": "HIERRO BLANCO",
        "mYoung": 180,
        "densidad": 7700,
        "coefInterno": 0,
        "factorN": 0.01,
        "cPoison": 0.3,
        "Absorvente": false
    },
    {
        "material": "HierroGris1",
        "alias": "HIERRO GRIS 1",
        "mYoung": 83,
        "densidad": 7000,
        "coefInterno": 0,
        "factorN": 0.02,
        "cPoison": 0.3,
        "Absorvente": false
    },
    {
        "material": "HierroGris2",
        "alias": "HIERRO GRIS 2",
        "mYoung": 117,
        "densidad": 7200,
        "coefInterno": 0,
        "factorN": 0.03,
        "cPoison": 0.3,
        "Absorvente": false
    },
    {
        "material": "HierroLabrado",
        "alias": "HIERRO LABRADO",
        "mYoung": 195,
        "densidad": 7900,
        "coefInterno": 0,
        "factorN": 0.01,
        "cPoison": 0.3,
        "Absorvente": false
    },
    {
        "material": "HierroNodular",
        "alias": "HIERRO NODULAR",
        "mYoung": 150,
        "densidad": 7600,
        "coefInterno": 0,
        "factorN": 0.01,
        "cPoison": 0.3,
        "Absorvente": false
    },
    {
        "material": "HierroMaleable",
        "alias": "HIERRO MALEABLE",
        "mYoung": 180,
        "densidad": 7200,
        "coefInterno": 0,
        "factorN": 0.04,
        "cPoison": 0.3,
        "Absorvente": false
    },
    {
        "material": "LaminaDeAluminio",
        "alias": "LAMINA DE ALUMINIO",
        "mYoung": 70,
        "densidad": 2700,
        "coefInterno": 0,
        "factorN": 0.01,
        "cPoison": 0.35,
        "Absorvente": false
    },
    {
        "material": "LaminaDePlomo",
        "alias": "LAMINA DE PLOMO",
        "mYoung": 13.8,
        "densidad": 11340,
        "coefInterno": 0,
        "factorN": 0.05,
        "cPoison": 0.44,
        "Absorvente": false
    },
    {
        "material": "LaminaDeZinc",
        "alias": "LAMINA DE ZINC",
        "mYoung": 96.5,
        "densidad": 7140,
        "coefInterno": 0,
        "factorN": 0.01,
        "cPoison": 0.33,
        "Absorvente": false
    },
    {
        "material": "Laton",
        "alias": "LATON",
        "mYoung": 95,
        "densidad": 8500,
        "coefInterno": 0,
        "factorN": 0.01,
        "cPoison": 0.35,
        "Absorvente": false
    },
    {
        "material": "Latón70%Zn 30%Cu",
        "alias": "LATÓN 70%ZN 30%CU",
        "mYoung": 101,
        "densidad": 8600,
        "coefInterno": 0,
        "factorN": 0.01,
        "cPoison": 0.35,
        "Absorvente": false
    },
    {
        "material": "LucitePolimetilmetacrilato",
        "alias": "LUCITE POLIMETILMETACRILATO",
        "mYoung": 4,
        "densidad": 1200,
        "coefInterno": 0,
        "factorN": 0.02,
        "cPoison": 0.35,
        "Absorvente": false
    },
    {
        "material": "MaderaContrachapada",
        "alias": "MADERA CONTRACHAPADA",
        "mYoung": 8.3,
        "densidad": 600,
        "coefInterno": 0,
        "factorN": 0.05,
        "cPoison": 0,
        "Absorvente": false
    },
    {
        "material": "MaderaDeBalsa",
        "alias": "MADERA DE BALSA",
        "mYoung": 3.4,
        "densidad": 160,
        "coefInterno": 0,
        "factorN": 0.05,
        "cPoison": 0.23,
        "Absorvente": false
    },
    {
        "material": "Magnesio",
        "alias": "MAGNESIO",
        "mYoung": 44.7,
        "densidad": 1740,
        "coefInterno": 0,
        "factorN": 0.01,
        "cPoison": 0.29
    },
    {
        "material": "Mdf",
        "alias": "MDF",
        "mYoung": 3.7,
        "densidad": 770,
        "coefInterno": 0,
        "factorN": 0.05,
        "cPoison": 0,
        "Absorvente": false
    },
    {
        "material": "MolduraDeGrafito",
        "alias": "MOLDURA DE GRAFITO",
        "mYoung": 9,
        "densidad": 1700,
        "coefInterno": 0,
        "factorN": 0.01,
        "cPoison": 0.07,
        "Absorvente": false
    },
    {
        "material": "Molibdeno",
        "alias": "MOLIBDENO",
        "mYoung": 280,
        "densidad": 10100,
        "coefInterno": 0,
        "factorN": 0.01,
        "cPoison": 0.32,
        "Absorvente": false
    },
    {
        "material": "MonelMetaAlinacionNiquelCobre",
        "alias": "MONEL METAL ALEACIÓN NÍQUEL COBRE",
        "mYoung": 180,
        "densidad": 8850,
        "coefInterno": 0,
        "factorN": 0.02,
        "cPoison": 0.33,
        "Absorvente": false
    },
    {
        "material": "NanotubosDeCarbon",
        "alias": "NANOTUBOS DE CARBON",
        "mYoung": 1000,
        "densidad": 1330,
        "coefInterno": 0,
        "factorN": 0.01,
        "cPoison": 0.06,
        "Absorvente": false
    },
    {
        "material": "Neodimio",
        "alias": "NEODIMIO",
        "mYoung": 390,
        "densidad": 7000,
        "coefInterno": 0,
        "factorN": 0.3,
        "cPoison": 0.31,
        "Absorvente": false
    },
    {
        "material": "Niquel",
        "alias": "NIQUEL",
        "mYoung": 205,
        "densidad": 8900,
        "coefInterno": 0,
        "factorN": 0.01,
        "cPoison": 0.31,
        "Absorvente": false
    },
    {
        "material": "NogalNegro",
        "alias": "NOGAL NEGRO",
        "mYoung": 11.6,
        "densidad": 550,
        "coefInterno": 0,
        "factorN": 0.05,
        "cPoison": 0.49,
        "Absorvente": false
    },
    {
        "material": "Nylon12",
        "alias": "NYLON 12",
        "mYoung": 1.2,
        "densidad": 1010,
        "coefInterno": 0,
        "factorN": 0.1,
        "cPoison": 0.35,
        "Absorvente": false
    },
    {
        "material": "Nylon6",
        "alias": "NYLON 6",
        "mYoung": 2.4,
        "densidad": 1200,
        "coefInterno": 0,
        "factorN": 0.1,
        "cPoison": 0.35,
        "Absorvente": false
    },
    {
        "material": "Nylon66",
        "alias": "NYLON 66",
        "mYoung": 2.7,
        "densidad": 1220,
        "coefInterno": 0,
        "factorN": 0.1,
        "cPoison": 0.35,
        "Absorvente": false
    },
    {
        "material": "Oro",
        "alias": "ORO",
        "mYoung": 79,
        "densidad": 19300,
        "coefInterno": 0,
        "factorN": 0.01,
        "cPoison": 0.44,
        "Absorvente": false
    },
    {
        "material": "PanelDeYeso",
        "alias": "PANEL DE YESO",
        "mYoung": 2.1,
        "densidad": 760,
        "coefInterno": 0,
        "factorN": 0.05,
        "cPoison": 0.24,
        "Absorvente": false
    },
    {
        "material": "PiceaDeEngelmann",
        "alias": "PICEA DE ENGEKMANN",
        "mYoung": 8.9,
        "densidad": 350,
        "coefInterno": 0,
        "factorN": 0.05,
        "cPoison": 0.42,
        "Absorvente": false
    },
    {
        "material": "Pino",
        "alias": "PINO",
        "mYoung": 8.2,
        "densidad": 350,
        "coefInterno": 0,
        "factorN": 0.06,
        "cPoison": 0,
        "Absorvente": false
    },
    {
        "material": "PinoInsigne",
        "alias": "PINO INSIGNE",
        "mYoung": 10.2,
        "densidad": 420,
        "coefInterno": 0,
        "factorN": 0.05,
        "cPoison": 0,
        "Absorvente": false
    },
    {
        "material": "Plata",
        "alias": "PLATA",
        "mYoung": 82.7,
        "densidad": 10500,
        "coefInterno": 0,
        "factorN": 0.03,
        "cPoison": 0.36,
        "Absorvente": false
    },
    {
        "material": "Platino",
        "alias": "PLATINO",
        "mYoung": 168,
        "densidad": 21400,
        "coefInterno": 0,
        "factorN": 0.02,
        "cPoison": 0.27,
        "Absorvente": false
    },
    {
        "material": "Plexiglass",
        "alias": "PLEXIGLASS",
        "mYoung": 3.5,
        "densidad": 1190,
        "coefInterno": 0,
        "factorN": 0.02,
        "cPoison": 0.35,
        "Absorvente": false
    },
    {
        "material": "PlomoLaminado",
        "alias": "PLOMO LAMINADO",
        "mYoung": 16.7,
        "densidad": 11400,
        "coefInterno": 0,
        "factorN": 0.04,
        "cPoison": 0.44,
        "Absorvente": false
    },
    {
        "material": "PlomoRecocido",
        "alias": "PLOMO RECOCIDO",
        "mYoung": 16,
        "densidad": 11400,
        "coefInterno": 0,
        "factorN": 0.03,
        "cPoison": 0.43,
        "Absorvente": false
    },
    {
        "material": "Polocarbonato",
        "alias": "POLICARBNATO",
        "mYoung": 2.3,
        "densidad": 1200,
        "coefInterno": 0,
        "factorN": 0.1,
        "cPoison": 0.35,
        "Absorvente": false
    },
    {
        "material": "Poliester",
        "alias": "POLIESTER",
        "mYoung": 2.3,
        "densidad": 1310,
        "coefInterno": 0,
        "factorN": 0.1,
        "cPoison": 0.4,
        "Absorvente": false
    },
    {
        "material": "PoliestirenoEspumaEspandida",
        "alias": "POLIESTIRENO ESPUMA ESPANDIDA",
        "mYoung": 0.0012,
        "densidad": 16,
        "coefInterno": 0,
        "factorN": 0.02,
        "cPoison": 0.3,
        "Absorvente": false
    },
    {
        "material": "PoliestirenoMoldeado",
        "alias": "POLIESTIRENO MOLDEADO",
        "mYoung": 3.2,
        "densidad": 1050,
        "coefInterno": 0,
        "factorN": 0.1,
        "cPoison": 0.34,
        "Absorvente": false
    },
    {
        "material": "PolietilenoAltaDensidad",
        "alias": "POLIETILENO ALTA DENSIDAD",
        "mYoung": 0.7,
        "densidad": 940,
        "coefInterno": 0,
        "factorN": 0.1,
        "cPoison": 0.44,
        "Absorvente": false
    },
    {
        "material": "PolietilenoBajaDensidad",
        "alias": "POLIETILENO BAJA DENSIDAD",
        "mYoung": 0.2,
        "densidad": 910,
        "coefInterno": 0,
        "factorN": 0.1,
        "cPoison": 0.44,
        "Absorvente": false
    },
    {
        "material": "Polipropileno",
        "alias": "POLIPROPILENO",
        "mYoung": 1.4,
        "densidad": 905,
        "coefInterno": 0,
        "factorN": 0.1,
        "cPoison": 0.4,
        "Absorvente": false
    },
    {
        "material": "Poliuretano",
        "alias": "POLIURETANO",
        "mYoung": 1.6,
        "densidad": 900,
        "coefInterno": 0,
        "factorN": 0.1,
        "cPoison": 0.35,
        "Absorvente": false
    },
    {
        "material": "Pvc",
        "alias": "PVC",
        "mYoung": 2.8,
        "densidad": 1400,
        "coefInterno": 0,
        "factorN": 0.1,
        "cPoison": 0.4,
        "Absorvente": false
    },
    {
        "material": "Pvdf",
        "alias": "PVDF",
        "mYoung": 1.5,
        "densidad": 1760,
        "coefInterno": 0,
        "factorN": 0.1,
        "cPoison": 0.35,
        "Absorvente": false
    },
    {
        "material": "Roble",
        "alias": "ROBLE",
        "mYoung": 12,
        "densidad": 630,
        "coefInterno": 0,
        "factorN": 0.05,
        "cPoison": 0.35,
        "Absorvente": false
    },
    {
        "material": "Secoya2ngGrowth",
        "alias": "SECOYA 2NG GROWTH",
        "mYoung": 6.6,
        "densidad": 340,
        "coefInterno": 0,
        "factorN": 0.05,
        "cPoison": 0.36,
        "Absorvente": false
    },
    {
        "material": "SecoyaVieja",
        "alias": "SECOYA VIEJA",
        "mYoung": 9.6,
        "densidad": 390,
        "coefInterno": 0,
        "factorN": 0.05,
        "cPoison": 0.36,
        "Absorvente": false
    },
    {
        "material": "SpruceSitka",
        "alias": "SPRUCE SITKA",
        "mYoung": 9.6,
        "densidad": 400,
        "coefInterno": 0,
        "factorN": 0.05,
        "cPoison": 0.37,
        "Absorvente": false
    },
    {
        "material": "TableroDeFibra",
        "alias": "TABLERO DE FIBRA",
        "mYoung": 3.5,
        "densidad": 480,
        "coefInterno": 0,
        "factorN": 0.05,
        "cPoison": 0.15,
        "Absorvente": false
    },
    {
        "material": "Titanio",
        "alias": "TITANIO",
        "mYoung": 116,
        "densidad": 4500,
        "coefInterno": 0,
        "factorN": 0.02,
        "cPoison": 0.32,
        "Absorvente": false
    },
    {
        "material": "TungstenoRecocido",
        "alias": "TUNGSTENO RECOCIDO",
        "mYoung": 412,
        "densidad": 19300,
        "coefInterno": 0,
        "factorN": 0.04,
        "cPoison": 0.28,
        "Absorvente": false
    },
    {
        "material": "TungstenoGrabado",
        "alias": "TUNGSTENO GRABADO",
        "mYoung": 360,
        "densidad": 19300,
        "coefInterno": 0,
        "factorN": 0.03,
        "cPoison": 0.34,
        "Absorvente": false
    },
    {
        "material": "TuyaDelCanada",
        "alias": "TUYA DEL CANADA",
        "mYoung": 5.5,
        "densidad": 320,
        "coefInterno": 0,
        "factorN": 0.05,
        "cPoison": 0.34,
        "Absorvente": false
    },
    {
        "material": "TuyaGigante",
        "alias": "TUYA GIGANTE",
        "mYoung": 7.6,
        "densidad": 320,
        "coefInterno": 0,
        "factorN": 0.05,
        "cPoison": 0.38,
        "Absorvente": false
    },
    {
        "nombre": "aire",
        "alias": "AIRE",
        "mYoung": 0,
        "densidad": 1.21,
        "coefInterno": 1,
        "factorN": 0,
        "cPoison": 0,
        "Absorvente": true
    },
    {
        "material": "FibraDeVidrio16Kg/m325mm",
        "alias": "FIBRA DE VIDRIO 16Kg/m3 25mm",
        "mYoung": 0,
        "densidad": 0,
        "coefInterno": 0.57,
        "factorN": 0,
        "cPoison": 0,
        "Absorvente": true
    },
    {
        "material": "FibraDeVidrio16Kg/m350mm",
        "alias": "FIBRA DE VIDRIO 16Kg/m3 50mm",
        "mYoung": 0,
        "densidad": 0,
        "coefInterno": 0.7775,
        "factorN": 0,
        "cPoison": 0,
        "Absorvente": true
    },
    {
        "material": "FibraDeVidrio16Kg/m375mm",
        "alias": "FIBRA DE VIDRIO 16Kg/m3 75mm",
        "mYoung": 0,
        "densidad": 0,
        "coefInterno": 0.9075,
        "factorN": 0,
        "cPoison": 0,
        "Absorvente": true
    },
    {
        "material": "FibraDeVidrio16Kg/m3100mm",
        "alias": "FIBRA DE VIDRIO 16Kg/m3 100mm",
        "mYoung": 0,
        "densidad": 0,
        "coefInterno": 0.965,
        "factorN": 0,
        "cPoison": 0,
        "Absorvente": true
    },
    {
        "material": "FibraDeVidrio24Kg/m325mm",
        "alias": "FIBRA DE VIDRIO 246Kg/m3 25mm",
        "mYoung": 0,
        "densidad": 0,
        "coefInterno": 0.635,
        "factorN": 0,
        "cPoison": 0,
        "Absorvente": true
    },
    {
        "material": "FibraDeVidrio24Kg/m350mm",
        "alias": "FIBRA DE VIDRIO 24Kg/m3 50mm",
        "mYoung": 0,
        "densidad": 0,
        "coefInterno": 0.87,
        "factorN": 0,
        "cPoison": 0,
        "Absorvente": true
    },
    {
        "material": "FibraDeVidrio24Kg/m375mm",
        "alias": "FIBRA DE VIDRIO 24Kg/m3 75mm",
        "mYoung": 0,
        "densidad": 0,
        "coefInterno": 0.9475,
        "factorN": 0,
        "cPoison": 0,
        "Absorvente": true
    },
    {
        "material": "FibraDeVidrio24Kg/m3100mm",
        "alias": "FIBRA DE VIDRIO 246Kg/m3 100mm",
        "mYoung": 0,
        "densidad": 0,
        "coefInterno": 1,
        "factorN": 0,
        "cPoison": 0,
        "Absorvente": true
    },
    {
        "material": "FibraDeVidrio48Kg/m350mm",
        "alias": "FIBRA DE VIDRIO 48Kg/m3 50mm",
        "mYoung": 0,
        "densidad": 0,
        "coefInterno": 0.95,
        "factorN": 0,
        "cPoison": 0,
        "Absorvente": true
    },
    {
        "material": "FibraDeVidrio48Kg/m375mm",
        "alias": "FIBRA DE VIDRIO 48Kg/m3 75mm",
        "mYoung": 0,
        "densidad": 0,
        "coefInterno": 0.9925,
        "factorN": 0,
        "cPoison": 0,
        "Absorvente": true
    },
    {
        "material": "FibraDeVidrio48Kg/m3100mm",
        "alias": "FIBRA DE VIDRIO 486Kg/m3 100mm",
        "mYoung": 0,
        "densidad": 0,
        "coefInterno": 1,
        "factorN": 0,
        "cPoison": 0,
        "Absorvente": true
    },
    {
        "material": "FibraDeVidrio60Kg/m325mm",
        "alias": "FIBRA DE VIDRIO 60Kg/m3 25mm",
        "mYoung": 0,
        "densidad": 0,
        "coefInterno": 0.6925,
        "factorN": 0,
        "cPoison": 0,
        "Absorvente": true
    },
    {
        "material": "FibraDeVidrio60Kg/m350mm",
        "alias": "FIBRA DE VIDRIO 60Kg/m3 50mm",
        "mYoung": 0,
        "densidad": 0,
        "coefInterno": 0.9575,
        "factorN": 0,
        "cPoison": 0,
        "Absorvente": true
    },
    {
        "material": "EspumaDePolieretano27kg/m315mm",
        "alias": "ESPUMA DE POLIERETANO 27kg/m3 15mm",
        "mYoung": 0,
        "densidad": 0,
        "coefInterno": 0.58,
        "factorN": 0,
        "cPoison": 0,
        "Absorvente": true
    },
    {
        "material": "EspumaAcustica6.35mm",
        "alias": "ESPUMA ACUSTICA 6.35mm",
        "mYoung": 0,
        "densidad": 0,
        "coefInterno": 0.3,
        "factorN": 0,
        "cPoison": 0,
        "Absorvente": true
    },
    {
        "material": "EspumaAcustica12.7mm",
        "alias": "ESPUMA ACUSTICA 12.7mm",
        "mYoung": 0,
        "densidad": 0,
        "coefInterno": 0.5075,
        "factorN": 0,
        "cPoison": 0,
        "Absorvente": true
    },
    {
        "material": "EspumaAcustica19.05mm",
        "alias": "ESPUMA ACUSTICA 19.05mm",
        "mYoung": 0,
        "densidad": 0,
        "coefInterno": 0.5925,
        "factorN": 0,
        "cPoison": 0,
        "Absorvente": true
    },
    {
        "material": "Drywall",
        "alias": "DRYWALL",
        "mYoung": 29.5,
        "densidad": 650,
        "coefInterno": 0,
        "factorN": 0.018,
        "cPoison": 0.13,
        "Absorvente": false
    },
    {
        "material": "Frescasa",
        "alias": "FRESCASA",
        "mYoung": 0,
        "densidad": 0,
        "coefInterno": 0.7,
        "factorN": 0,
        "cPoison": 0,
        "Absorvente": true
    }
]